<svg xmlns="http://www.w3.org/2000/svg" width="470" height="470" viewBox="0 0 470 470">
  <defs>
    <style>
      .cls-1 {
        fill: #fff;
        fill-rule: evenodd;
        opacity: 0.2;
      }
    </style>
  </defs>
  <path class="cls-1" d="M1350,147c129.79,0,235,105.213,235,235s-105.21,235-235,235-235-105.213-235-235S1220.21,147,1350,147Zm0,1c129.23,0,234,104.765,234,234s-104.77,234-234,234-234-104.766-234-234S1220.77,148,1350,148Z" transform="translate(-1115 -147)"/>
</svg>
