<svg xmlns="http://www.w3.org/2000/svg" width="50.5" height="50.5" viewBox="0 0 50.5 50.5">
  <defs>
    <style>
      .cls-1 {
        fill: #fff;
        fill-rule: evenodd;
      }
    </style>
  </defs>
  <path id="без_прозрачности" data-name="без прозрачности" class="cls-1" d="M38.375,25.25A2.4,2.4,0,0,0,40.9,22.72a0.843,0.843,0,0,1,.842-0.835h0a0.839,0.839,0,0,1,.837.839,4.208,4.208,0,1,1-8.417,0V19.358a4.208,4.208,0,1,1,8.417,0,0.842,0.842,0,0,1-1.683,0,2.525,2.525,0,1,0-5.05,0v3.362A2.4,2.4,0,0,0,38.375,25.25ZM26.591,30.3H23.225a0.841,0.841,0,0,1-.841-0.842v-10.1a0.842,0.842,0,1,1,1.683,0v9.258h2.525c0.1,0,2.525-.036,2.525-1.683a1.779,1.779,0,0,0-1.693-1.588,4.635,4.635,0,0,1-1.035-.121,0.841,0.841,0,0,1,.2-1.658,5.668,5.668,0,0,1,.983.092,1.952,1.952,0,0,0,1.023-3.24,2.517,2.517,0,0,0-1.8-.244,0.841,0.841,0,1,1-.407-1.633,4.066,4.066,0,0,1,3.246.55A3.337,3.337,0,0,1,30.8,21.883a3.385,3.385,0,0,1-1.067,2.71,2.905,2.905,0,0,1,1.067,2.34C30.8,29.6,28.047,30.3,26.591,30.3ZM50.158,6.733H49.317V34.508a4.213,4.213,0,0,1-4.209,4.209h-21.3a2.307,2.307,0,1,1,.253-1.684h21.05a2.528,2.528,0,0,0,2.525-2.525V5.891a0.841,0.841,0,0,1,.842-0.841h0.842V3.366H2.183V5.05H45.108a0.841,0.841,0,1,1,0,1.683H1.341A0.841,0.841,0,0,1,.5,5.891V2.525a0.841,0.841,0,0,1,.841-0.842H24.908V0.841a0.842,0.842,0,0,1,1.683,0V1.683H50.158A0.841,0.841,0,0,1,51,2.525V5.891A0.841,0.841,0,0,1,50.158,6.733ZM3.025,8.416a0.841,0.841,0,0,1,.841.842v25.25a2.528,2.528,0,0,0,2.525,2.525H6.567a2.321,2.321,0,1,1,.253,1.684H6.392a4.213,4.213,0,0,1-4.209-4.209V9.258A0.842,0.842,0,0,1,3.025,8.416Zm7.51,16.316a0.842,0.842,0,1,1-1.554-.648l4.208-10.1a0.842,0.842,0,0,1,1.554,0l4.208,10.1a0.842,0.842,0,0,1-1.554.648L13.967,16.5l-2.245,5.386h1.4a0.842,0.842,0,0,1,0,1.684h-2.1ZM24.908,43.418V41.241a0.842,0.842,0,1,1,1.683,0v2.525a0.843,0.843,0,0,1-.247.595l-5.892,5.892a0.842,0.842,0,0,1-1.19-1.19ZM28.87,45.7l3.367,3.366a0.842,0.842,0,1,1-1.19,1.19L27.68,46.886A0.841,0.841,0,0,1,28.87,45.7Z" transform="translate(-0.5)"/>
</svg>
