<svg xmlns="http://www.w3.org/2000/svg" width="14" height="18" viewBox="0 0 14 18">
  <defs>
    <style>
      .cls-1 {
        fill: #fff;
        fill-rule: evenodd;
      }
    </style>
  </defs>
  <path class="cls-1" d="M1546.02,28l-3.03,2.984V29H1539V27h3.99V25.016ZM1540,23h-3V33h3V31h2v4h-5v2l-5-2h0V21h0l5-2v2h5v4h-2V23Z" transform="translate(-1532 -19)"/>
</svg>
